<mxfile host="app.diagrams.net" modified="2020-09-03T08:49:52.906Z" agent="5.0 (Windows NT 10.0; Win64; x64) AppleWebKit/537.36 (KHTML, like Gecko) Chrome/84.0.4147.135 Safari/537.36" etag="qLHPsDtgb6k0Ney_ICn5" version="13.6.6" type="gitlab">
  <diagram id="Nju-rDUlieRKyK-emzN4" name="Page-1">
    <mxGraphModel dx="782" dy="1683" grid="1" gridSize="10" guides="1" tooltips="1" connect="1" arrows="1" fold="1" page="1" pageScale="1" pageWidth="827" pageHeight="1169" math="0" shadow="0">
      <root>
        <mxCell id="0" />
        <mxCell id="1" parent="0" />
        <mxCell id="3yz4c8kMTzHfZIkxJo1b-1" value="" style="group;labelBackgroundColor=#ffffff;textOpacity=50;" parent="1" vertex="1" connectable="0">
          <mxGeometry x="40" y="250" width="813" height="790" as="geometry" />
        </mxCell>
        <mxCell id="3NUxb1PbqM7dbUlObQZ5-7" value="" style="group;labelBackgroundColor=#E6E6E6;" parent="3yz4c8kMTzHfZIkxJo1b-1" vertex="1" connectable="0">
          <mxGeometry x="20" y="20" width="833" height="527" as="geometry" />
        </mxCell>
        <mxCell id="3yz4c8kMTzHfZIkxJo1b-2" value="&lt;span style=&quot;background-color: rgb(230 , 230 , 230)&quot;&gt;Moon&lt;/span&gt;" style="shape=folder;fontStyle=1;spacingTop=10;tabWidth=40;tabHeight=14;tabPosition=left;html=1;fontFamily=Lucida Console;fontSize=24;collapsible=1;container=0;labelPosition=center;verticalLabelPosition=top;align=center;verticalAlign=bottom;dropTarget=1;" parent="3NUxb1PbqM7dbUlObQZ5-7" vertex="1">
          <mxGeometry x="20" y="20" width="787" height="440" as="geometry" />
        </mxCell>
        <mxCell id="3NUxb1PbqM7dbUlObQZ5-6" value="" style="group" parent="3NUxb1PbqM7dbUlObQZ5-7" vertex="1" connectable="0">
          <mxGeometry x="40" y="40" width="773" height="467" as="geometry" />
        </mxCell>
        <mxCell id="3yz4c8kMTzHfZIkxJo1b-3" value="Light" style="shape=folder;fontStyle=1;spacingTop=10;tabWidth=40;tabHeight=14;tabPosition=left;html=1;fontFamily=Lucida Console;fontSize=24;collapsible=1;container=0;labelPosition=center;verticalLabelPosition=top;align=center;verticalAlign=bottom;dropTarget=1;" parent="3NUxb1PbqM7dbUlObQZ5-6" vertex="1">
          <mxGeometry x="20" y="20" width="711" height="400" as="geometry" />
        </mxCell>
        <mxCell id="3NUxb1PbqM7dbUlObQZ5-4" value="" style="group" parent="3NUxb1PbqM7dbUlObQZ5-6" vertex="1" connectable="0">
          <mxGeometry x="40" y="40" width="713" height="407" as="geometry" />
        </mxCell>
        <mxCell id="3yz4c8kMTzHfZIkxJo1b-4" value="Plazma" style="shape=folder;fontStyle=1;spacingTop=7;tabWidth=40;tabHeight=14;tabPosition=left;fontFamily=Lucida Console;fontSize=24;collapsible=1;container=0;labelPosition=center;verticalLabelPosition=top;align=center;verticalAlign=bottom;dropTarget=1;html=1;" parent="3NUxb1PbqM7dbUlObQZ5-4" vertex="1">
          <mxGeometry x="20" y="20" width="671" height="350" as="geometry" />
        </mxCell>
        <mxCell id="3NUxb1PbqM7dbUlObQZ5-3" value="" style="group" parent="3NUxb1PbqM7dbUlObQZ5-4" vertex="1" connectable="0">
          <mxGeometry x="42" y="63.10472972972974" width="651" height="324" as="geometry" />
        </mxCell>
        <mxCell id="3yz4c8kMTzHfZIkxJo1b-5" value="[Pasieka: Plazma]" style="swimlane;fontFamily=Lucida Console;fontSize=24;container=0;" parent="3NUxb1PbqM7dbUlObQZ5-3" vertex="1">
          <mxGeometry x="20" y="20" width="611" height="284" as="geometry" />
        </mxCell>
        <mxCell id="3yz4c8kMTzHfZIkxJo1b-6" value="[Ul: Babylon]&#xa;[O]: King" style="swimlane;childLayout=stackLayout;horizontal=1;startSize=30;horizontalStack=0;rounded=1;fontSize=14;fontStyle=0;strokeWidth=2;resizeParent=0;resizeLast=1;shadow=0;dashed=0;align=center;fillColor=#fff2cc;strokeColor=#d6b656;" parent="3NUxb1PbqM7dbUlObQZ5-3" vertex="1">
          <mxGeometry x="336.34" y="63" width="275" height="135.10135135135138" as="geometry">
            <mxRectangle x="9.996103051768504" y="40" width="100" height="40" as="alternateBounds" />
          </mxGeometry>
        </mxCell>
        <mxCell id="3yz4c8kMTzHfZIkxJo1b-7" value="+[Plaster: City]&#xa;  +[AllowedRoles: Babilonian, Businessmen]&#xa;+[Plaster: Goshem]&#xa;  +[AllowedRoles: Israelites]&#xa;+[Plaster: Palace]&#xa;  +[AllowedRoles: King, Advisor]" style="align=left;strokeColor=none;fillColor=none;spacingLeft=4;fontSize=12;verticalAlign=top;resizable=0;rotatable=0;part=1;" parent="3yz4c8kMTzHfZIkxJo1b-6" vertex="1">
          <mxGeometry y="30" width="275" height="105.10135135135138" as="geometry" />
        </mxCell>
        <mxCell id="3yz4c8kMTzHfZIkxJo1b-8" value="[Ul: Egypt]&#xa;[O]: Faraon" style="swimlane;childLayout=stackLayout;horizontal=1;startSize=30;horizontalStack=0;rounded=1;fontSize=14;fontStyle=0;strokeWidth=2;resizeParent=0;resizeLast=1;shadow=0;dashed=0;align=center;fillColor=#fff2cc;strokeColor=#d6b656;" parent="3NUxb1PbqM7dbUlObQZ5-3" vertex="1">
          <mxGeometry x="40" y="63" width="263.34000000000003" height="135.10135135135138" as="geometry">
            <mxRectangle x="9.996103051768504" y="40" width="100" height="40" as="alternateBounds" />
          </mxGeometry>
        </mxCell>
        <mxCell id="3yz4c8kMTzHfZIkxJo1b-9" value="+[Plaster: Reds]&#xa;  +[AllowedRoles: Reds]&#xa;+[Plaster: Black]&#xa;  +[AllowedRoles: Blacks]&#xa;+[Plaster: Palace]&#xa;  +[AllowedRoles: Faraon, Faryzeusz]" style="align=left;strokeColor=none;fillColor=none;spacingLeft=4;fontSize=12;verticalAlign=top;resizable=0;rotatable=0;part=1;" parent="3yz4c8kMTzHfZIkxJo1b-8" vertex="1">
          <mxGeometry y="30" width="263.34000000000003" height="105.10135135135138" as="geometry" />
        </mxCell>
        <mxCell id="3yz4c8kMTzHfZIkxJo1b-10" value="[Ul: Israel]&#xa;[O]: King" style="swimlane;childLayout=stackLayout;horizontal=1;startSize=30;horizontalStack=0;rounded=1;fontSize=14;fontStyle=0;strokeWidth=2;resizeParent=0;resizeLast=1;shadow=0;dashed=0;align=center;fillColor=#fff2cc;strokeColor=#d6b656;" parent="3NUxb1PbqM7dbUlObQZ5-3" vertex="1">
          <mxGeometry x="40" y="215.02702702702703" width="263.34000000000003" height="69.41554054054055" as="geometry">
            <mxRectangle x="9.996103051768504" y="40" width="100" height="40" as="alternateBounds" />
          </mxGeometry>
        </mxCell>
        <mxCell id="3yz4c8kMTzHfZIkxJo1b-11" value="+[Plaster: Temple]&#xa;  +[AllowedRoles: Templar]" style="align=left;strokeColor=none;fillColor=none;spacingLeft=4;fontSize=12;verticalAlign=top;resizable=0;rotatable=0;part=1;" parent="3yz4c8kMTzHfZIkxJo1b-10" vertex="1">
          <mxGeometry y="30" width="263.34000000000003" height="39.41554054054055" as="geometry" />
        </mxCell>
        <mxCell id="3yz4c8kMTzHfZIkxJo1b-12" value="Sirius" style="shape=folder;fontStyle=1;spacingTop=10;tabWidth=40;tabHeight=14;tabPosition=left;fontFamily=Lucida Console;fontSize=24;collapsible=1;container=1;labelPosition=center;verticalLabelPosition=top;align=center;verticalAlign=bottom;dropTarget=1;autosize=1;labelBackgroundColor=#FFB366;" parent="1" vertex="1">
          <mxGeometry x="170" y="122.5" width="220" height="115" as="geometry" />
        </mxCell>
        <mxCell id="3yz4c8kMTzHfZIkxJo1b-13" value="[Ul: Service]&#xa;[O]: @Lord of Sirius" style="swimlane;childLayout=stackLayout;horizontal=1;startSize=30;horizontalStack=0;rounded=1;fontSize=14;fontStyle=0;strokeWidth=2;resizeParent=0;resizeLast=1;shadow=0;dashed=0;align=center;fillColor=#fff2cc;strokeColor=#d6b656;" parent="3yz4c8kMTzHfZIkxJo1b-12" vertex="1">
          <mxGeometry x="20" y="20" width="180" height="75" as="geometry">
            <mxRectangle x="9.996103051768504" y="40" width="100" height="40" as="alternateBounds" />
          </mxGeometry>
        </mxCell>
        <mxCell id="3yz4c8kMTzHfZIkxJo1b-14" value="+[Plaster: ServiceDesk]&#xa;  +[AllowedRoles: Cat]" style="align=left;strokeColor=none;fillColor=none;spacingLeft=4;fontSize=12;verticalAlign=top;resizable=0;rotatable=0;part=1;" parent="3yz4c8kMTzHfZIkxJo1b-13" vertex="1">
          <mxGeometry y="30" width="180" height="45" as="geometry" />
        </mxCell>
        <mxCell id="3yz4c8kMTzHfZIkxJo1b-15" value="Mars" style="shape=folder;fontStyle=1;spacingTop=10;tabWidth=40;tabHeight=14;tabPosition=left;html=1;fontFamily=Lucida Console;fontSize=24;collapsible=1;container=1;labelPosition=center;verticalLabelPosition=top;align=center;verticalAlign=bottom;dropTarget=1;autosize=0;labelBackgroundColor=#FF0000;" parent="1" vertex="1">
          <mxGeometry x="480" y="110" width="324" height="140" as="geometry" />
        </mxCell>
        <mxCell id="3yz4c8kMTzHfZIkxJo1b-16" value="[Ul: Lebanon]&#xa;[O]: @Krol Artur" style="swimlane;childLayout=stackLayout;horizontal=1;startSize=30;horizontalStack=0;rounded=1;fontSize=14;fontStyle=0;strokeWidth=2;resizeParent=0;resizeLast=1;shadow=0;dashed=0;align=center;fillColor=#fff2cc;strokeColor=#d6b656;" parent="3yz4c8kMTzHfZIkxJo1b-15" vertex="1">
          <mxGeometry x="20" y="20" width="284.0724" height="100" as="geometry">
            <mxRectangle x="9.996103051768504" y="40" width="100" height="40" as="alternateBounds" />
          </mxGeometry>
        </mxCell>
        <mxCell id="3yz4c8kMTzHfZIkxJo1b-17" value="+[Plaster: Dyrektoriat]&#xa;  +[AllowedRoles: Dyrektor, Sekretarz, Zarzad]&#xa;+[Plaster: Tents]&#xa;  +[AllowedRoles: Uchodzca, Toda]" style="align=left;strokeColor=none;fillColor=none;spacingLeft=4;fontSize=12;verticalAlign=top;resizable=0;rotatable=0;part=1;" parent="3yz4c8kMTzHfZIkxJo1b-16" vertex="1">
          <mxGeometry y="30" width="284.0724" height="70" as="geometry" />
        </mxCell>
        <mxCell id="M1_8kz7tXZ_ZJmylYmJe-1" value="REALITY" style="text;strokeColor=none;fillColor=none;html=1;fontSize=48;fontStyle=1;verticalAlign=middle;align=center;labelBackgroundColor=#FFFF66;" vertex="1" parent="1">
          <mxGeometry x="414" width="100" height="40" as="geometry" />
        </mxCell>
      </root>
    </mxGraphModel>
  </diagram>
</mxfile>
